<!-- README.md is generated from README.Rmd. Please edit that file -->

# Gobernantes de Nicaragua

Este repositorio contiene datos sobre todos los gobernantes de
Nicaragua. Actualmente, los datos en este repositorio contienen
información desde el año 1508 al 2020.

``` r
data
#> # A tibble: 204 x 6
#>    state        title              name              political_party start   end
#>    <chr>        <chr>              <chr>             <chr>           <dbl> <dbl>
#>  1 Veragua      Gobernador         Diego de Nicuesa  <NA>             1508  1511
#>  2 Veragua      Gobernador         Vasco Núñez de B~ <NA>             1511  1514
#>  3 Veragua      Licencia real par~ Gil González Dáv~ <NA>             1522  1524
#>  4 Castilla de~ Gobernador         Francisco Hernán~ <NA>             1524  1526
#>  5 Provincia d~ Gobernador         Pedro de los Río~ <NA>             1526  1527
#>  6 Provincia d~ Gobernador         Diego López de S~ <NA>             1527  1528
#>  7 Provincia d~ Gobernador         Pedro Arias Dávi~ <NA>             1528  1531
#>  8 Provincia d~ Gobernador         Francisco de Cas~ <NA>             1531  1535
#>  9 Provincia d~ Gobernador         Felipe Gutiérrez~ <NA>             1534  1536
#> 10 Provincia d~ Gobernador         Diego Álvarez de~ <NA>             1535  1535
#> # ... with 194 more rows
```
…
